{
  "totalCount": 55,
  "totalPages": 6,
  "page": 2,
  "size": 10,
  "items": [
    {
      "id": "81f1cbc3-6be2-4747-87ef-32cc65482193",
      "status": 1,
      "remark": "SAS带宽已关闭，因为光学驱动所以我们能链接CLI带宽！",
      "createTime": "2023-04-28T14:32:33.771Z",
      "updateTime": "2023-11-17T11:02:28.946Z",
      "creatorId": "8219f09e-7b98-427a-9507-b33d8ce775c9",
      "lastModifierId": null,
      "lastModifyTime": "2023-12-01T19:30:56.697Z",
      "name": "滑国华",
      "username": "p1pvgw.tnd",
      "password": "5uvHjNaEnIpACBx"
    },
    {
      "id": "68ecfe30-dac1-425a-8588-04fef3026dca",
      "status": 0,
      "remark": "在没有入侵神经元IB卡片的情况下，你不能复制传感器！",
      "createTime": "2023-09-17T10:07:37.644Z",
      "updateTime": "2023-12-03T05:22:20.575Z",
      "creatorId": "ef55775c-9686-4de4-9ba4-84bcb4acfd93",
      "lastModifierId": "84a212f5-a91f-47f0-8e30-b949b2cf8c84",
      "lastModifyTime": "2023-12-29T03:55:15.055Z",
      "name": "爱诗雨",
      "username": "pa8kfk.j33",
      "password": "8081rxM7B4SSm5b"
    },
    {
      "id": "e54502dc-65d4-4c59-a530-9bf9747579f1",
      "status": 0,
      "remark": "尝试编程IP硬盘，也许会传输多字节面板！",
      "createTime": "2024-01-06T00:10:28.080Z",
      "updateTime": "2024-01-14T18:55:39.154Z",
      "creatorId": "9cafa67e-7ce1-47b2-a2c1-3d3d8aeab70d",
      "lastModifierId": null,
      "lastModifyTime": "2023-11-11T07:02:01.171Z",
      "name": "危凤英",
      "username": "hm1p8q_noz",
      "password": "E4pxtk9UcFP0CDX"
    },
    {
      "id": "58dee677-b6b3-46ba-821a-4484162ffc16",
      "status": 1,
      "remark": "PCI芯片已关闭，因为跨平台电路所以我们能计算ASCII驱动！",
      "createTime": "2023-07-22T15:39:14.129Z",
      "updateTime": "2023-12-16T06:30:08.731Z",
      "creatorId": "30cdbeb8-1032-422e-ae3e-5f646feec398",
      "lastModifierId": "ec33daf6-a1fe-4303-a9c7-c2095d3b89c8",
      "lastModifyTime": "2023-11-28T23:28:53.646Z",
      "name": "寒振东",
      "username": "sf0ppm.rns49",
      "password": "Bav1_lGhFXt_bry"
    },
    {
      "id": "135f33a8-c781-4d87-ab49-353ce69cec47",
      "status": 1,
      "remark": "我们需要绕过无线OCR电路！",
      "createTime": "2023-12-18T23:47:22.102Z",
      "updateTime": "2023-12-28T08:29:45.589Z",
      "creatorId": "bbbeeed1-2e47-451d-99b3-e253a3889e15",
      "lastModifierId": "89b1fe8c-d840-4e0c-af70-7cc97577deb6",
      "lastModifyTime": "2023-10-11T10:28:56.675Z",
      "name": "潭丹",
      "username": "pa8kfk_l5zto3",
      "password": "gC4fsA0v8TVxg12"
    },
    {
      "id": "bb038022-6651-4515-a24a-ff565c7efa0f",
      "status": 0,
      "remark": "在没有复制移动CLI电容器的情况下，你不能链接芯片！",
      "createTime": "2023-09-27T05:37:55.063Z",
      "updateTime": "2023-11-03T16:46:23.327Z",
      "creatorId": "87d254c4-790d-4bd6-ac96-5615f8c134dd",
      "lastModifierId": "57d48cb0-7886-445a-ad87-f8d30c165cde",
      "lastModifyTime": "2023-10-13T09:04:03.348Z",
      "name": "赫连开慧",
      "username": "lm1sds58",
      "password": "4lUfBbhWAF0De4H"
    },
    {
      "id": "4d08158c-f611-49c8-96b6-0bd16f72a064",
      "status": 0,
      "remark": "在没有量化神经元XML监视器的情况下，你不能重启像素！",
      "createTime": "2023-02-17T15:32:55.227Z",
      "updateTime": "2023-12-18T04:41:22.609Z",
      "creatorId": "b2ef07f3-2f73-4b9f-917d-ffb80749447b",
      "lastModifierId": "2f95026b-4c7c-4a1d-801e-a75a4f61ca43",
      "lastModifyTime": "2023-11-06T21:22:34.061Z",
      "name": "侯敏",
      "username": "pa8kfk19",
      "password": "UaiWh2wF8J2jw74"
    },
    {
      "id": "ffac5d09-3423-48ee-94bc-cfb8bb101170",
      "status": 0,
      "remark": "HEX防火墙已关闭，因为全高清接口所以我们能输入DNS像素！",
      "createTime": "2023-07-10T17:52:51.542Z",
      "updateTime": "2023-12-23T06:38:57.186Z",
      "creatorId": "176764cc-7caf-4871-8f83-31b6e32b9638",
      "lastModifierId": "40dfcae3-41c9-4647-887f-f636ac97b662",
      "lastModifyTime": null,
      "name": "锁梓浩",
      "username": "k5qsbt_nz1",
      "password": "ulOpaxhFkN535P6"
    },
    {
      "id": "9ac313cf-8f61-4b58-86a5-ac731232274a",
      "status": 0,
      "remark": "复制数组是无济于事的，我们需要压缩神经元PNG警报！",
      "createTime": "2023-08-26T09:46:26.652Z",
      "updateTime": "2024-01-05T01:00:03.901Z",
      "creatorId": null,
      "lastModifierId": null,
      "lastModifyTime": null,
      "name": "燕建华",
      "username": "izh.onw61",
      "password": "IjqVflH8JbFaqsy"
    },
    {
      "id": "4d6cbfc1-f795-42da-b774-338537bd5c17",
      "status": 0,
      "remark": "我将索引冗余AI芯片，那是应该卡片OCR协议！",
      "createTime": "2023-07-03T17:07:23.113Z",
      "updateTime": null,
      "creatorId": null,
      "lastModifierId": "dada1d4c-d381-419d-8525-f00fe883ecfe",
      "lastModifyTime": "2023-11-20T17:45:59.792Z",
      "name": "牢敏",
      "username": "pu9ggq.p5h",
      "password": "DdtSI3P03XDMA96"
    }
  ]
}