{
  "totalCount": 55,
  "totalPages": 6,
  "page": 3,
  "size": 10,
  "items": [
    {
      "id": "bc86e1d5-7cce-4b59-83be-82a13a385b9b",
      "status": 1,
      "remark": "尝试备份RAM应用，也许会计算移动发送端！",
      "createTime": "2023-05-01T19:47:46.210Z",
      "updateTime": "2023-10-05T11:13:23.181Z",
      "creatorId": "687095c8-3d69-48df-a017-1cce96af0f67",
      "lastModifierId": "387a9022-23b0-437b-ab6f-1476414aff4f",
      "lastModifyTime": "2023-12-03T08:50:12.817Z",
      "name": "荆子欣",
      "username": "v9r25",
      "password": "Qxzgs7fmOXPiWCj"
    },
    {
      "id": "010d1211-56b7-495c-bc9e-f829e50b9b63",
      "status": 1,
      "remark": "VGA电容器已关闭，因为蓝牙防火墙所以我们能链接JSON面板！",
      "createTime": "2023-09-01T19:10:27.692Z",
      "updateTime": "2023-10-17T03:50:08.658Z",
      "creatorId": "4988e260-ff4b-4441-b8e8-1469d7366204",
      "lastModifierId": "83d7dcbc-24f9-4dc1-9eb7-eb16dd8e1a0b",
      "lastModifyTime": "2023-10-26T16:01:08.807Z",
      "name": "字梓豪",
      "username": "izhpd649",
      "password": "yRGSWqbxap3lCik"
    },
    {
      "id": "5871222f-4c42-44ca-900a-cfda0e6a7919",
      "status": 1,
      "remark": "我将导航在线THX驱动，那是应该带宽API面板！",
      "createTime": "2023-09-26T06:49:08.139Z",
      "updateTime": "2024-01-14T20:48:06.884Z",
      "creatorId": "0f25340d-3341-4f75-8f76-c7498ec208da",
      "lastModifierId": "10d07c67-299f-4bd1-9501-35b4bd272a4f",
      "lastModifyTime": "2023-10-05T06:16:43.697Z",
      "name": "行佳琪",
      "username": "ryilj1.ghr22",
      "password": "OC8pS72jMkKf1q0"
    },
    {
      "id": "8864f198-0d4b-45f7-aa3d-fc58435329c4",
      "status": 0,
      "remark": "我们需要计算多字节RSS系统！",
      "createTime": "2023-09-17T18:20:26.176Z",
      "updateTime": "2023-10-17T22:20:13.706Z",
      "creatorId": null,
      "lastModifierId": "e402e746-0a54-448a-9c60-2ef34a2327b9",
      "lastModifyTime": "2023-10-17T23:36:04.794Z",
      "name": "禚立伟",
      "username": "jwui2v.qg9",
      "password": "0TqQVKQAmSqDTX5"
    },
    {
      "id": "d78c66eb-1ab4-4658-9e77-70975b09edfc",
      "status": 0,
      "remark": "ADP芯片已关闭，因为多字节驱动所以我们能合成EXE发送端！",
      "createTime": "2023-06-06T04:00:03.271Z",
      "updateTime": "2023-10-29T12:29:07.437Z",
      "creatorId": null,
      "lastModifierId": "631121ed-f648-488c-9412-f8c7f86cf2ee",
      "lastModifyTime": "2023-10-26T11:07:21.768Z",
      "name": "桥建国",
      "username": "ggqk1z_j3338",
      "password": "mFt8RP4qy__dgzP"
    },
    {
      "id": "7126e2ed-6101-4a0c-a4b9-c960928a67bd",
      "status": 1,
      "remark": "尝试传输CLI协议，也许会覆盖冗余卡片！",
      "createTime": "2023-06-27T10:16:41.066Z",
      "updateTime": "2023-10-21T22:39:05.622Z",
      "creatorId": "5510e6ac-68e1-4f25-b077-390ca73c0af3",
      "lastModifierId": null,
      "lastModifyTime": "2023-10-10T19:34:20.116Z",
      "name": "公冶帅",
      "username": "ppm76",
      "password": "dqnKCRHqv2n1d4D"
    },
    {
      "id": "9bbd5b08-33f8-45d8-b1fb-8308c7e1ecb4",
      "status": 1,
      "remark": "我们需要备份蓝牙JSON接口！",
      "createTime": "2023-12-22T19:35:38.334Z",
      "updateTime": "2023-11-27T05:02:08.891Z",
      "creatorId": "cbb1767a-596b-4e00-870e-29b666ead591",
      "lastModifierId": "c08f22c2-8b5c-485a-b075-6d40a85b5722",
      "lastModifyTime": "2023-12-05T23:43:03.347Z",
      "name": "藩梓玥",
      "username": "negtue.ski",
      "password": "xhOImKf3O_GpLO_"
    },
    {
      "id": "9063e32b-79b0-48ca-a30b-3acb8bf2540e",
      "status": 0,
      "remark": "在没有绕过固态COM电容器的情况下，你不能编程电路！",
      "createTime": "2023-09-12T00:05:15.148Z",
      "updateTime": "2024-01-02T17:31:30.591Z",
      "creatorId": null,
      "lastModifierId": "623f4a86-8d2e-40f5-b331-f6d1a8c64eb7",
      "lastModifyTime": "2023-12-26T21:31:56.558Z",
      "name": "阴磊",
      "username": "po4sf0.g9z32",
      "password": "J82n6ZXh1CLULNV"
    },
    {
      "id": "252c50af-0df8-4f8e-b22a-4f92abc8b0df",
      "status": 0,
      "remark": "尝试绕过OCR数组，也许会编程全高清驱动！",
      "createTime": "2023-07-24T17:20:22.148Z",
      "updateTime": "2023-10-25T10:44:48.181Z",
      "creatorId": "67d54e82-0222-45a3-b6a4-68f6a249bff1",
      "lastModifierId": null,
      "lastModifyTime": "2023-12-08T04:40:34.290Z",
      "name": "玉依诺",
      "username": "m97k5q.rxg",
      "password": "zShtHIf1kKwAhqZ"
    },
    {
      "id": "b5739565-7646-42c9-8f75-47dd346296b8",
      "status": 0,
      "remark": "尝试链接IP系统，也许会合成固态电路！",
      "createTime": "2023-12-20T06:18:18.712Z",
      "updateTime": "2023-10-20T13:36:32.119Z",
      "creatorId": "1ade6e5b-5fa6-430d-8b93-9666ecabbb22",
      "lastModifierId": "e516180c-941b-4b7e-901e-82054c87b37c",
      "lastModifyTime": "2023-11-24T08:39:44.175Z",
      "name": "兴明",
      "username": "fextfv_kn932",
      "password": "jR_Fh9d6CwfP5QM"
    }
  ]
}