{
  "totalCount": 55,
  "totalPages": 6,
  "page": 5,
  "size": 10,
  "items": [
    {
      "id": "f74bbd15-f806-4476-b4bc-01518ab89836",
      "status": 0,
      "remark": "尝试传输HEX带宽，也许会导航触控面板！",
      "createTime": "2023-10-08T04:44:12.230Z",
      "updateTime": "2023-12-18T01:53:34.608Z",
      "creatorId": "c0832ef3-dc60-4731-b3c0-4a1ad9063bc7",
      "lastModifierId": "1b4ab92d-bbeb-4d5d-be5b-1df0c8a9b6dd",
      "lastModifyTime": "2023-12-20T09:14:49.857Z",
      "name": "况娟",
      "username": "izhfoz70",
      "password": "eQkGg8NAXGT6ae3"
    },
    {
      "id": "0c1cfc3b-72af-4712-8a5d-e5995cec8008",
      "status": 0,
      "remark": "合成像素是无济于事的，我们需要编程辅助SSL传感器！",
      "createTime": "2023-11-05T03:36:27.171Z",
      "updateTime": "2023-11-20T15:20:55.422Z",
      "creatorId": null,
      "lastModifierId": "82d8b02e-59e6-4259-97d4-18111f1bd062",
      "lastModifyTime": "2023-12-28T17:09:52.967Z",
      "name": "缑雅婷",
      "username": "uclgm3_hce",
      "password": "9qVq5F_Nh0zpqHC"
    },
    {
      "id": "86372365-d11b-45f9-950e-ef848b982ba1",
      "status": 0,
      "remark": "我们需要生成在线RAM电路！",
      "createTime": "2023-08-08T22:05:31.524Z",
      "updateTime": "2024-01-07T14:32:40.199Z",
      "creatorId": "8eefb5a8-ddd1-4996-a2b0-d35882e2fccd",
      "lastModifierId": null,
      "lastModifyTime": "2023-10-10T16:20:18.112Z",
      "name": "菅蒙",
      "username": "mawgge11",
      "password": "nU7jQsllnNGt2Uo"
    },
    {
      "id": "3d2e3ab6-8375-4bdd-b5a3-3335cabfe013",
      "status": 0,
      "remark": "在没有覆盖虚拟THX像素的情况下，你不能输入防火墙！",
      "createTime": "2023-07-04T12:59:01.237Z",
      "updateTime": null,
      "creatorId": "d59e9ad1-5a82-4c8a-a6df-2e15fba382cd",
      "lastModifierId": "5d5895ea-8604-4781-bfbc-662284f6b0a4",
      "lastModifyTime": null,
      "name": "不鹏",
      "username": "v9r_tqj",
      "password": "MSWtlZmu1mbZOLQ"
    },
    {
      "id": "2f01431a-ca08-4c39-976f-54ee80ef2cc9",
      "status": 1,
      "remark": "ADP传感器已关闭，因为固态总线所以我们能覆盖SAS数组！",
      "createTime": "2023-02-10T01:00:00.886Z",
      "updateTime": "2024-01-07T12:19:43.438Z",
      "creatorId": "86c0e53f-c99b-46c6-8ced-36cf9e12c34c",
      "lastModifierId": "9dd3d426-3425-4af0-833d-383d87c528da",
      "lastModifyTime": "2023-12-17T11:27:55.222Z",
      "name": "崇明",
      "username": "tbfv9r66",
      "password": "hAAJxdBNBHewASl"
    },
    {
      "id": "37dabfa2-d0c4-48cd-8f2e-6b50970856be",
      "status": 1,
      "remark": "我将编程冗余XML防火墙，那是应该硬盘DNS发送端！",
      "createTime": "2023-02-04T13:50:51.666Z",
      "updateTime": "2023-10-07T20:47:38.821Z",
      "creatorId": "7ac5bf70-76b3-4cfa-8974-1684dde11fca",
      "lastModifierId": "b83cf0c0-e32b-4133-8c47-a87bbbfb860f",
      "lastModifyTime": null,
      "name": "叶佳琪",
      "username": "me4hce.i7t",
      "password": "id3CANhPW0cOnig"
    },
    {
      "id": "37071b6c-0453-4c83-af80-751a1cdeea36",
      "status": 0,
      "remark": "计算提要是无济于事的，我们需要复制后端GB提要！",
      "createTime": "2023-11-16T07:47:50.211Z",
      "updateTime": "2023-11-17T12:45:29.977Z",
      "creatorId": "453a4606-ea3b-48ee-8114-f2341d3bb44f",
      "lastModifierId": "77636b93-12ee-4ca8-acc7-319abbfdc82c",
      "lastModifyTime": "2023-12-31T06:14:01.497Z",
      "name": "沃建军",
      "username": "fmnnzu.kac",
      "password": "ZJi5JTUr3Kqoz4_"
    },
    {
      "id": "f283c116-2bf7-40d4-8a8d-9165bfa21c3c",
      "status": 0,
      "remark": "我们需要合成全高清SSD电路！",
      "createTime": "2023-04-26T05:07:36.911Z",
      "updateTime": "2023-10-06T10:13:11.393Z",
      "creatorId": null,
      "lastModifierId": "d9e30e5f-3935-4403-8bb5-1aab46bd356a",
      "lastModifyTime": "2023-10-22T13:48:08.935Z",
      "name": "由娜",
      "username": "hm1i2v.gl4o6y49",
      "password": "gqRXtAm0oR6Oh8p"
    },
    {
      "id": "167951d7-28b5-4d64-b072-2be1351d5474",
      "status": 1,
      "remark": "使用固态PNG硬盘，然后你就能链接冗余发送端！",
      "createTime": "2023-04-24T17:03:37.588Z",
      "updateTime": "2023-11-17T08:04:56.914Z",
      "creatorId": null,
      "lastModifierId": "fee644f8-8a75-45f8-a025-619247918a52",
      "lastModifyTime": "2023-10-04T08:17:04.277Z",
      "name": "汪桂兰",
      "username": "k1zk5m1",
      "password": "rfBHctJs3jsvjZ6"
    },
    {
      "id": "6cd6465c-7595-46bd-b777-ffc8d61d64c5",
      "status": 1,
      "remark": "尝试绕过SQL数组，也许会索引跨平台总线！",
      "createTime": "2023-04-05T17:52:11.435Z",
      "updateTime": null,
      "creatorId": null,
      "lastModifierId": null,
      "lastModifyTime": "2023-12-19T07:50:23.058Z",
      "name": "东艺涵",
      "username": "lh7lnf_rmf6",
      "password": "A_wJzpBvO7qu5_J"
    }
  ]
}