{
  "totalCount": 55,
  "totalPages": 6,
  "page": 1,
  "size": 10,
  "items": [
    {
      "id": "4e9e134d-60c8-45a3-9f4d-73519aa5bf92",
      "status": 1,
      "remark": "IB提要已关闭，因为无线提要所以我们能备份HDD电容器！",
      "createTime": "2023-10-04T01:35:37.499Z",
      "updateTime": "2024-01-03T14:44:48.878Z",
      "creatorId": null,
      "lastModifierId": "50b740d5-5fd5-481f-a6d0-c868990f313f",
      "lastModifyTime": "2023-10-31T18:24:57.124Z",
      "name": "丙艳",
      "username": "ttbtw9_oah51",
      "password": "l26JGCu9rvWaLxj"
    },
    {
      "id": "591fd496-5773-4e91-9211-ad3461fafefa",
      "status": 0,
      "remark": "XML发送端已关闭，因为蓝牙提要所以我们能备份IP像素！",
      "createTime": "2023-12-30T21:02:39.395Z",
      "updateTime": "2023-11-28T07:54:01.665Z",
      "creatorId": "7ae9e76f-9c2e-4ca6-b3e5-fa8fee3a2544",
      "lastModifierId": "d933960c-6ea8-4458-a33f-8ec288409b67",
      "lastModifyTime": "2023-11-12T05:29:53.834Z",
      "name": "扈婷方",
      "username": "i1crqi_p8d78",
      "password": "4SlZwblaAMsX7JM"
    },
    {
      "id": "4d29da9b-b2a8-4e0c-8239-4cf27cc63012",
      "status": 1,
      "remark": "倘若我们解析带宽，我们就可以通过光学VGA传感器获得PNG像素！",
      "createTime": "2023-05-07T15:04:00.691Z",
      "updateTime": "2023-11-20T20:28:36.478Z",
      "creatorId": "301ccc56-5ebd-4c75-bb69-eaddf94ba88a",
      "lastModifierId": "4abed0b4-0b6f-4bc7-a0ad-c20288b64751",
      "lastModifyTime": "2023-10-08T18:16:56.152Z",
      "name": "东宇",
      "username": "lh7lnf68",
      "password": "Zov4dmxhtWyGz1H"
    },
    {
      "id": "5efef4f6-50fa-4598-a091-c14505ca2288",
      "status": 0,
      "remark": "我们需要链接固态DNS发送端！",
      "createTime": "2023-05-18T14:58:34.236Z",
      "updateTime": "2023-11-04T23:07:23.953Z",
      "creatorId": "ce428c67-b0ba-4a28-a80d-d84930c7e557",
      "lastModifierId": "0d99e9fc-ab23-4824-afa5-231d4845b28d",
      "lastModifyTime": "2023-10-18T06:24:07.211Z",
      "name": "乌静怡",
      "username": "my2.pu5",
      "password": "SnxvUft0q21wf0u"
    },
    {
      "id": "b10b53c4-4c33-4b90-a638-f49480171614",
      "status": 1,
      "remark": "入侵监视器是无济于事的，我们需要重启虚拟EXE驱动！",
      "createTime": "2024-01-03T02:42:16.922Z",
      "updateTime": "2023-10-13T11:29:30.130Z",
      "creatorId": "e915547b-d333-41c8-a5d8-f8dfc6c86419",
      "lastModifierId": "74dc7364-e4eb-44b7-8437-aa112cb91664",
      "lastModifyTime": null,
      "name": "少宇轩",
      "username": "k5qscp_pzs",
      "password": "km7tiEil6Ihck4h"
    },
    {
      "id": "a391a492-ce2e-42c5-bd7c-0cee31e770f7",
      "status": 0,
      "remark": "覆盖数组是无济于事的，我们需要传输神经元HDD矩阵！",
      "createTime": "2023-02-23T20:35:16.469Z",
      "updateTime": null,
      "creatorId": "f0fa6c86-f2dd-4577-90f1-af484e34521e",
      "lastModifierId": "1c56cb45-17c4-4d8e-b1d6-0bff56f24380",
      "lastModifyTime": null,
      "name": "房语桐",
      "username": "mawfmn_p0q41",
      "password": "jYN1wy4UxBgzean"
    },
    {
      "id": "17fac4f1-b966-4773-a37b-fe2edbf3f79b",
      "status": 0,
      "remark": "我们需要绕过后端SMTP带宽！",
      "createTime": "2023-12-15T21:43:53.840Z",
      "updateTime": "2024-01-06T17:46:46.336Z",
      "creatorId": "4ce1e641-94d8-491b-94cd-79e45c0615b1",
      "lastModifierId": "8a07f700-08b2-4b9e-b667-f215d742549a",
      "lastModifyTime": null,
      "name": "游浩轩",
      "username": "fvpki7.fm281",
      "password": "t5mnWPUvoObIunV"
    },
    {
      "id": "07efff54-9088-4c90-8e28-f2cb807acbe9",
      "status": 1,
      "remark": "我们需要索引无线FTP驱动！",
      "createTime": "2023-11-11T08:29:36.599Z",
      "updateTime": "2023-12-12T18:28:25.546Z",
      "creatorId": null,
      "lastModifierId": "522eca76-7b6f-4953-8806-78d5a0dd2f96",
      "lastModifyTime": "2023-11-05T21:56:41.269Z",
      "name": "集安琪",
      "username": "i1csbt.qxt27",
      "password": "5QBww_XRgdv_nhK"
    },
    {
      "id": "2ecb952c-ae22-4f01-951f-32d5aa52acb3",
      "status": 0,
      "remark": "我将编程光学XSS数组，那是应该带宽RSS提要！",
      "createTime": "2023-11-16T10:38:39.430Z",
      "updateTime": "2024-01-03T04:02:09.252Z",
      "creatorId": "e2719280-e287-4748-b9a9-a26dc7f8db4f",
      "lastModifierId": null,
      "lastModifyTime": "2023-10-27T19:37:22.548Z",
      "name": "度一诺",
      "username": "fozmy299",
      "password": "6Hc09FYspCxzZX9"
    },
    {
      "id": "f736273a-c44d-40d4-a2f7-c1caf7549c45",
      "status": 1,
      "remark": "倘若我们解析电容器，我们就可以通过移动COM数组获得UDP硬盘！",
      "createTime": "2023-06-12T07:31:23.795Z",
      "updateTime": "2023-11-12T11:58:52.038Z",
      "creatorId": "a086e31a-734d-49bb-9b7e-4adc35235a3d",
      "lastModifierId": "d46bd074-8709-4fc7-9566-12ccabfe6873",
      "lastModifyTime": "2023-11-07T08:23:24.528Z",
      "name": "荣浩宇",
      "username": "gncsbt.kmd",
      "password": "t746nRokgRMU_kD"
    }
  ]
}