{
  "totalCount": 55,
  "totalPages": 6,
  "page": 6,
  "size": 10,
  "items": [
    {
      "id": "c07951a2-1f50-409d-8fbc-de0673dafe4e",
      "status": 0,
      "remark": "在没有复制多字节XML硬盘的情况下，你不能编程发送端！",
      "createTime": "2023-10-01T20:49:30.853Z",
      "updateTime": "2023-11-14T05:22:31.803Z",
      "creatorId": null,
      "lastModifierId": null,
      "lastModifyTime": "2023-11-11T20:58:23.270Z",
      "name": "公羊榕融",
      "username": "valljf92",
      "password": "a_OSTAMJyl3gz92"
    },
    {
      "id": "214e2baa-a92a-4188-9f19-164e5bf6d65c",
      "status": 0,
      "remark": "量化面板是无济于事的，我们需要压缩蓝牙RSS应用！",
      "createTime": "2023-08-04T23:42:47.661Z",
      "updateTime": "2023-11-29T07:47:44.273Z",
      "creatorId": "9d1097fd-0498-4ce3-9126-c98cf9be11f3",
      "lastModifierId": "0f63f689-e85d-4655-9d09-89d0c3b3b2ec",
      "lastModifyTime": "2023-12-07T05:20:27.033Z",
      "name": "晏晨",
      "username": "gncsbt_iul31",
      "password": "PZX3fLRy3yVNP1Z"
    },
    {
      "id": "df14ee58-0478-4c21-8c5a-c3dfed20a4e7",
      "status": 0,
      "remark": "使用开源COM总线，然后你就能链接辅助端口！",
      "createTime": "2023-11-20T14:00:08.418Z",
      "updateTime": "2023-12-05T12:39:27.442Z",
      "creatorId": "61b580fe-9c06-49f1-8ed9-3f4b3bcdcb3c",
      "lastModifierId": "8710503e-9267-4b9c-b29f-ad10bf02d2f8",
      "lastModifyTime": "2024-01-01T01:40:33.348Z",
      "name": "枚蒙",
      "username": "v9blnf89",
      "password": "jbguuTgKtSY7YGE"
    },
    {
      "id": "7ce5eb34-fc8b-4ca1-b99c-75ffaccbf55b",
      "status": 1,
      "remark": "CLI端口已关闭，因为神经元像素所以我们能传输PCI警报！",
      "createTime": "2023-10-31T01:47:13.150Z",
      "updateTime": "2023-11-14T23:29:56.818Z",
      "creatorId": "3abf9a29-c48c-476c-be81-3f847020fe2a",
      "lastModifierId": "75a45ef6-7f1a-4fe5-861f-63a7e0bb1bab",
      "lastModifyTime": "2023-12-25T04:55:02.642Z",
      "name": "桓梓豪",
      "username": "pybsbt67",
      "password": "wKDchOcZ8kGXg4N"
    },
    {
      "id": "b34a0d2d-517c-443c-8cd6-396cc78a4a1d",
      "status": 1,
      "remark": "使用光学HTTP防火墙，然后你就能覆盖跨平台硬盘！",
      "createTime": "2023-11-28T07:01:19.370Z",
      "updateTime": "2023-10-15T00:40:10.450Z",
      "creatorId": "de20dbb7-e84e-4c43-9aba-39ef1bf5d021",
      "lastModifierId": "c10a0302-0b98-40b0-bce7-ef1946a82d98",
      "lastModifyTime": "2024-01-15T15:28:22.026Z",
      "name": "淡癸霖",
      "username": "jlbi46_fit",
      "password": "9TyXd16ovu1_z88"
    }
  ]
}