{
  "totalCount": 55,
  "totalPages": 6,
  "page": 4,
  "size": 10,
  "items": [
    {
      "id": "992e45f9-451c-409c-9c16-150ea8eeff80",
      "status": 0,
      "remark": "VGA驱动已关闭，因为多字节传感器所以我们能绕过HTTP传感器！",
      "createTime": "2023-04-04T05:59:47.437Z",
      "updateTime": "2024-01-07T07:56:32.542Z",
      "creatorId": "ccd3a3d2-96c4-403b-ab92-6fd12b6ee7cd",
      "lastModifierId": "1f27459a-3d43-4c35-8c97-43786d7270c7",
      "lastModifyTime": "2023-11-30T21:22:17.959Z",
      "name": "赧政君",
      "username": "k5qgs2.puf",
      "password": "RtDY33N3p3oRcPB"
    },
    {
      "id": "088f371b-388d-4064-9c3b-96a9e8b52612",
      "status": 1,
      "remark": "倘若我们合成警报，我们就可以通过光学SQL数组获得SMS电容器！",
      "createTime": "2023-11-08T01:19:07.070Z",
      "updateTime": "2023-12-10T20:35:03.770Z",
      "creatorId": null,
      "lastModifierId": "7d3bd782-5179-4d80-936a-4e08de3e10c9",
      "lastModifyTime": "2023-12-24T02:38:33.866Z",
      "name": "席文韬",
      "username": "rn1hdu52",
      "password": "dh2MpC5qCQqd3lp"
    },
    {
      "id": "db667c1b-7944-4c72-b7d9-1930e02fd889",
      "status": 1,
      "remark": "CLI提要已关闭，因为虚拟监视器所以我们能绕过SQL端口！",
      "createTime": "2023-10-04T04:29:43.521Z",
      "updateTime": "2023-10-27T22:59:28.266Z",
      "creatorId": null,
      "lastModifierId": "6859a64d-57ff-4170-8f02-100bf56a81d1",
      "lastModifyTime": "2024-01-14T21:38:11.270Z",
      "name": "伊美方",
      "username": "knnk8836",
      "password": "0HqwMm4Pd_oamzt"
    },
    {
      "id": "db432a8f-14d9-4617-8216-363b02c19a38",
      "status": 0,
      "remark": "我将复制开源RAM传感器，那是应该协议XML芯片！",
      "createTime": "2023-02-15T12:08:13.584Z",
      "updateTime": null,
      "creatorId": "e581cbdc-0a87-41f0-a346-30243ff26f84",
      "lastModifierId": "3501c946-7fb5-4eab-8755-1328c5a151d7",
      "lastModifyTime": "2023-12-18T21:09:19.713Z",
      "name": "刑若汐",
      "username": "tw9izl_geu49",
      "password": "AaHyGygLprZjVw8"
    },
    {
      "id": "263a8237-bce2-4e3a-af2a-b85032e38fa0",
      "status": 1,
      "remark": "在没有传输蓝牙CLI硬盘的情况下，你不能复制芯片！",
      "createTime": "2023-05-06T21:07:12.805Z",
      "updateTime": null,
      "creatorId": "01530910-8f96-41c1-85e0-141ac9678dd5",
      "lastModifierId": null,
      "lastModifyTime": null,
      "name": "毋雨桐",
      "username": "rn1hdu.fu270",
      "password": "P323kDShsWm2k0K"
    },
    {
      "id": "769ff4e0-78cb-41d5-b7bd-146697f218f1",
      "status": 0,
      "remark": "量化监视器是无济于事的，我们需要索引开源PCI面板！",
      "createTime": "2023-12-02T13:14:30.722Z",
      "updateTime": "2024-01-04T21:23:22.616Z",
      "creatorId": "d6267da8-aaf4-4660-9d95-cab8485770cb",
      "lastModifierId": "cfc1f305-494a-4109-a5a2-d5b13114de61",
      "lastModifyTime": "2023-11-01T05:33:24.773Z",
      "name": "池梓涵",
      "username": "k1zu0c_tnd",
      "password": "pa4KoUR2EwhgZIQ"
    },
    {
      "id": "29b4a29a-deb9-44ff-8ba0-1910360170df",
      "status": 1,
      "remark": "使用虚拟XSS发送端，然后你就能编程辅助提要！",
      "createTime": "2023-10-07T15:12:52.400Z",
      "updateTime": null,
      "creatorId": null,
      "lastModifierId": "4b9d9968-c1f7-4160-a8dd-aa6a731c28cf",
      "lastModifyTime": "2023-10-31T03:35:14.604Z",
      "name": "行伟",
      "username": "k8qi48.lut",
      "password": "zmmp4KSA5h1EFDu"
    },
    {
      "id": "3a2106ae-312c-49f9-a78c-a329c428afff",
      "status": 1,
      "remark": "倘若我们入侵应用，我们就可以通过全高清RAM电容器获得SDD面板！",
      "createTime": "2023-02-26T14:02:18.977Z",
      "updateTime": "2023-10-12T14:10:45.817Z",
      "creatorId": "d216116e-cece-438f-a784-c878a209f8ce",
      "lastModifierId": null,
      "lastModifyTime": "2023-10-19T00:54:27.469Z",
      "name": "偶帅",
      "username": "pd6fvp56",
      "password": "cD72WBSTKUpM6Dx"
    },
    {
      "id": "25b0af13-7f82-4210-9d22-52eb33901a60",
      "status": 1,
      "remark": "计算面板是无济于事的，我们需要合成辅助OCR电路！",
      "createTime": "2023-04-22T13:21:10.990Z",
      "updateTime": "2023-11-11T02:15:11.897Z",
      "creatorId": "05070c7e-db4e-4c8d-adf5-8cb1bd412ed0",
      "lastModifierId": "fc6e89aa-c932-4311-82a2-2630fc202ef1",
      "lastModifyTime": "2024-01-14T05:16:19.611Z",
      "name": "度辉",
      "username": "izhsf027",
      "password": "0VvYS5eREQsT2Dm"
    },
    {
      "id": "f8e056f7-c6b4-4522-8763-ba87e7db1a18",
      "status": 0,
      "remark": "我们需要覆盖多字节PNG协议！",
      "createTime": "2023-03-29T03:06:00.025Z",
      "updateTime": "2023-10-25T23:58:11.267Z",
      "creatorId": "61aee16c-8af8-4415-a8f3-df63b9137105",
      "lastModifierId": "1db95550-5650-4d58-8617-7103e2ae11bb",
      "lastModifyTime": "2023-10-23T19:00:22.858Z",
      "name": "亓宇",
      "username": "nlrlqi_gi1",
      "password": "jyJ7prbQojP2Oa9"
    }
  ]
}